<svg xmlns="http://www.w3.org/2000/svg" viewBox="0 0 64 64" aria-labelledby="title"
aria-describedby="desc" role="img" xmlns:xlink="http://www.w3.org/1999/xlink">
  <title>AIM</title>
  <desc>A color styled icon from Orion Icon Library.</desc>
  <path data-name="layer1"
  d="M41.5 18.8a9.4 9.4 0 1 0-9.4-9.4 9.389 9.389 0 0 0 9.4 9.4zm-3 14.6c15 .9 21.5-1.7 21.5-1.7l-1.4-8.9s-17.5 5.8-25.5-4.2c-.4-.1-1 .4-1 .4-8.3 7.2-4.2 27.1-28.1 28.3.3 4.2 1.2 10.5 1.2 10.5S24 55.7 31.7 45.3A78.788 78.788 0 0 1 47.2 64l8.7-4.6s-5.3-14.9-17.4-26z"
  fill="#fece00"></path>
</svg>