<svg xmlns="http://www.w3.org/2000/svg" viewBox="0 0 64 64" aria-labelledby="title"
aria-describedby="desc" role="img" xmlns:xlink="http://www.w3.org/1999/xlink">
  <title>Bing</title>
  <desc>A color styled icon from Orion Icon Library.</desc>
  <path data-name="layer1"
  d="M27.091 16.218l6.651 15.292 9.075 3.633-34.41 19.114 14.675-15.013V6.13L8-.006v54.679l15.271 9.321 36.212-21.632V27.369zm0 0"
  fill="#ffba00"></path>
</svg>