<svg xmlns="http://www.w3.org/2000/svg" viewBox="0 0 64 64" aria-labelledby="title"
aria-describedby="desc" role="img" xmlns:xlink="http://www.w3.org/1999/xlink">
  <title>Contact Card</title>
  <desc>A line styled icon from Orion Icon Library.</desc>
  <path data-name="layer2"
  d="M52 10v1a5 5 0 0 1-10 0v-1H22v1a5 5 0 1 1-10 0v-1H2v44h60V10z" fill="none"
  stroke="#33cc33" stroke-miterlimit="10" stroke-width="2" stroke-linejoin="round"
  stroke-linecap="round"></path>
  <path data-name="layer1" fill="none" stroke="#003399" stroke-miterlimit="10"
  stroke-width="2" d="M38 26h16m-16 8h16m-16 8h8" stroke-linejoin="round"
  stroke-linecap="round"></path>
  <circle data-name="layer1" cx="20" cy="28" r="6" fill="none" stroke="#003399"
  stroke-miterlimit="10" stroke-width="2" stroke-linejoin="round" stroke-linecap="round"></circle>
  <path data-name="layer1" d="M20 34a10.1 10.1 0 0 0-10 10.3V46h20v-1.7A10.1 10.1 0 0 0 20 34z"
  fill="none" stroke="#003399" stroke-miterlimit="10" stroke-width="2" stroke-linejoin="round"
  stroke-linecap="round"></path>
</svg>