<svg xmlns="http://www.w3.org/2000/svg" viewBox="0 0 64 64" aria-labelledby="title"
aria-describedby="desc" role="img" xmlns:xlink="http://www.w3.org/1999/xlink">
  <title>Credit Card</title>
  <desc>A line styled icon from Orion Icon Library.</desc>
  <path data-name="layer2"
  d="M62 16a3 3 0 0 0-3-3H5a3 3 0 0 0-3 3v7h60zM2 23v25a3 3 0 0 0 3 3h54a3 3 0 0 0 3-3V23"
  fill="none" stroke="#33cc33" stroke-miterlimit="10" stroke-width="2" stroke-linejoin="round"
  stroke-linecap="round"></path>
  <path data-name="layer1" fill="none" stroke="#003399" stroke-miterlimit="10"
  stroke-width="2" d="M10 31h20m18 0h6m-44 8h8" stroke-linejoin="round" stroke-linecap="round"></path>
</svg>