<svg viewBox="0 0 64 64" xmlns="http://www.w3.org/2000/svg" aria-labelledby="title"
aria-describedby="desc" role="img" xmlns:xlink="http://www.w3.org/1999/xlink">
  <title>Crown</title>
  <desc>A line styled icon from Orion Icon Library.</desc>
  <circle stroke-width="2"
  stroke-miterlimit="10" stroke="#33cc33" fill="none" r="6" cy="9.999" cx="32"
  data-name="layer2" stroke-linejoin="round" stroke-linecap="round"></circle>
  <path d="M32 15.999v8.002" stroke-width="2" stroke-miterlimit="10"
  stroke="#33cc33" fill="none" data-name="layer2" stroke-linejoin="round"
  stroke-linecap="round"></path>
  <path d="M4 60.001h56M17.258 46.23a16 16 0 1 1 29.484 0" stroke-width="2"
  stroke-miterlimit="10" stroke="#003399" fill="none" data-name="layer1"
  stroke-linejoin="round" stroke-linecap="round"></path>
  <path stroke-width="2" stroke-miterlimit="10" stroke="#003399"
  fill="none" d="M25 25.609A16.007 16.007 0 0 0 2 40a16.288 16.288 0 0 0 5.992 12.483C9.624 53.852 12 55.993 12 60m27-34.39a16 16 0 0 1 17 26.879c-1.666 1.321-4 3.129-4 7.511"
  data-name="layer1" stroke-linejoin="round" stroke-linecap="round"></path>
</svg>