<svg xmlns="http://www.w3.org/2000/svg" viewBox="0 0 64 64" aria-labelledby="title"
aria-describedby="desc" role="img" xmlns:xlink="http://www.w3.org/1999/xlink">
  <title>CSS3</title>
  <desc>A color styled icon from Orion Icon Library.</desc>
  <path data-name="layer1"
  d="M9.5 3L7.4 13.8h43.7l-1.4 6.9H6L3.9 31.5h43.7l-2.4 12.3-17.6 5.8-15.3-5.8 1-5.3H2.6L0 51.3 25.3 61l29.1-9.7L64 3z"
  fill="#2b2b2b"></path>
</svg>