<svg viewBox="0 0 64 64" xmlns="http://www.w3.org/2000/svg" aria-labelledby="title"
aria-describedby="desc" role="img" xmlns:xlink="http://www.w3.org/1999/xlink">
  <title>Deadline</title>
  <desc>A line styled icon from Orion Icon Library.</desc>
  <path stroke-width="2"
  stroke-miterlimit="10" stroke-linecap="round" stroke="#33cc33" fill="none"
  d="M29.375 35.625L16.293 18.707a1.007 1.007 0 0 1 1.414-1.414l16.918 13.082A3.739 3.739 0 0 1 30 36.254a3.914 3.914 0 0 1-.625-.629z"
  data-name="layer2" stroke-linejoin="round"></path>
  <path stroke-width="2" stroke-miterlimit="10" stroke-linecap="round"
  stroke="#003399" fill="none" d="M10.787 10.787A30 30 0 1 0 32 2v13" data-name="layer1"
  stroke-linejoin="round"></path>
</svg>