<svg xmlns="http://www.w3.org/2000/svg" viewBox="0 0 64 64" aria-labelledby="title"
aria-describedby="desc" role="img" xmlns:xlink="http://www.w3.org/1999/xlink">
  <title>Delicious</title>
  <desc>A color styled icon from Orion Icon Library.</desc>
  <path data-name="layer2"
  d="M60 53.3a6.833 6.833 0 0 1-6.7 6.7H32V32H4V10.7A6.345 6.345 0 0 1 6 6a6.508 6.508 0 0 1 4.7-2H32V0H10.7A10.712 10.712 0 0 0 0 10.7v42.7A10.691 10.691 0 0 0 10.7 64h42.7A10.691 10.691 0 0 0 64 53.3V32h-4z"
  fill="#333"></path>
  <path data-name="layer1" d="M53.3 0H32v32h32V10.7A10.712 10.712 0 0 0 53.3 0z"
  fill="#39f"></path>
</svg>