<svg xmlns="http://www.w3.org/2000/svg" viewBox="0 0 64 64" aria-labelledby="title"
aria-describedby="desc" role="img" xmlns:xlink="http://www.w3.org/1999/xlink">
  <title>Deviantart</title>
  <desc>A color styled icon from Orion Icon Library.</desc>
  <path data-name="layer1"
  d="M35.105 26.7h-8.3l7.6 13.422c13.1-3.633 26-7.266 29.6-8.275-7.2-9.789-23.6-13.523-42.2-10.193L18.905 16l-7.2 1.615 2.9 5.853C1.205 28.211-3.095 38.807 2.205 49c0 0 14.6-4.037 29.7-8.275l-8.3-16.046c8.2-1.312 20.4-1.009 26.5 5.651-1.8.5-5.8 1.514-10.7 2.725zm-24.7 13.624c-.7-5.954 1.7-10.5 6-13.119l5 10.394c-6.2 1.511-11 2.722-11 2.722z"
  fill="#01cb3e"></path>
</svg>