<svg xmlns="http://www.w3.org/2000/svg" viewBox="0 0 64 64" aria-labelledby="title"
aria-describedby="desc" role="img" xmlns:xlink="http://www.w3.org/1999/xlink">
  <title>Digg</title>
  <desc>A color styled icon from Orion Icon Library.</desc>
  <path data-name="layer1"
  d="M9.8 22.5H0v19.6h16.3V14H9.8zm-.2 13.6H6.3V28h3.3zm19.2 6.3h9.5v2.5h-9.5v5.9h16V22.6h-16zm6.1-13.6h3.2v8.1h-3.2zM48 22.6v19.8h9.5v2.5H48v5.9h16V22.6zm9.3 14.3h-3.2v-8.1h3.2zM19.2 14.1h6.5v5.5h-6.5zm0 8.5h6.5v19.7h-6.5z"
  fill="#2169a8"></path>
</svg>