<svg xmlns="http://www.w3.org/2000/svg" viewBox="0 0 64 64" aria-labelledby="title"
aria-describedby="desc" role="img" xmlns:xlink="http://www.w3.org/1999/xlink">
  <title>Empty Trash</title>
  <desc>A line styled icon from Orion Icon Library.</desc>
  <path data-name="layer1"
  fill="none" stroke="#003399" stroke-miterlimit="10" stroke-width="2" d="M2 13h60"
  stroke-linejoin="round" stroke-linecap="round"></path>
  <path data-name="layer2" d="M9.2 23l3.3 24c.4 2 1.8 4 4 4h30.9c2.2 0 3.7-2.1 4-4l3.5-24"
  fill="none" stroke="#33cc33" stroke-miterlimit="10" stroke-width="2" stroke-linejoin="round"
  stroke-linecap="round"></path>
  <path data-name="layer1" d="M5 13l.8 7.1A3.4 3.4 0 0 0 9.2 23h45.7a3.4 3.4 0 0 0 3.4-2.9L59 13"
  fill="none" stroke="#003399" stroke-miterlimit="10" stroke-width="2" stroke-linejoin="round"
  stroke-linecap="round"></path>
</svg>