<svg viewBox="0 0 64 64" xmlns="http://www.w3.org/2000/svg" aria-labelledby="title"
aria-describedby="desc" role="img" xmlns:xlink="http://www.w3.org/1999/xlink">
  <title>Exit</title>
  <desc>A line styled icon from Orion Icon Library.</desc>
  <path d="M22 48h16V4H2v43l20 14V19L2 4"
  stroke-width="2" stroke-miterlimit="10" stroke-linecap="round" stroke="#33cc33"
  fill="none" data-name="layer2" stroke-linejoin="round"></path>
  <path d="M32 26h29M51 16l10 10-10 10" stroke-width="2" stroke-miterlimit="10"
  stroke-linecap="round" stroke="#003399" fill="none" data-name="layer1"
  stroke-linejoin="round"></path>
</svg>