<svg xmlns="http://www.w3.org/2000/svg" viewBox="0 0 64 64" aria-labelledby="title"
aria-describedby="desc" role="img" xmlns:xlink="http://www.w3.org/1999/xlink">
  <title>Forrst</title>
  <desc>A color styled icon from Orion Icon Library.</desc>
  <path data-name="layer1"
  fill="#5b9a68" d="M34 63.994h28l-30-64-30 64h28.1v-10.4l-6.7-5 1.2-4.7 5.5 4v-11.8H34v6l5.3-3.4 1.1 4-6.4 4v4.5l10.3-5.1.9 4.9-11.2 5.5v7.5z"></path>
</svg>