<svg xmlns="http://www.w3.org/2000/svg" viewBox="0 0 64 64" aria-labelledby="title"
aria-describedby="desc" role="img" xmlns:xlink="http://www.w3.org/1999/xlink">
  <title>Hacker News</title>
  <desc>A color styled icon from Orion Icon Library.</desc>
  <path data-name="layer1"
  d="M0 0v64h64V0zm34.8 36.9v15.7h-5.7V36.9l-14-27.7h6.6L32 30.1 42.6 9.2h6.2z"
  fill="#f60"></path>
</svg>