<svg xmlns="http://www.w3.org/2000/svg" viewBox="0 0 64 64" aria-labelledby="title"
aria-describedby="desc" role="img" xmlns:xlink="http://www.w3.org/1999/xlink">
  <title>Hour</title>
  <desc>A line styled icon from Orion Icon Library.</desc>
  <path data-name="layer2"
  fill="none" stroke="#33cc33" stroke-linecap="round" stroke-miterlimit="10"
  stroke-width="2" d="M2 32h8m44 0h8M32 10V2m0 60v-8M6.019 47l4.33-2.5m43.302-25l4.33-2.5M19.5 10.349L17 6.019m30 51.962l-2.5-4.33M6.019 17l4.33 2.5m43.302 25l4.33 2.5M44.5 10.349l2.5-4.33M17 57.981l2.5-4.33"
  stroke-linejoin="round"></path>
  <circle data-name="layer1" cx="32" cy="33" r="2" fill="none" stroke="#003399"
  stroke-linecap="round" stroke-miterlimit="10" stroke-width="2" stroke-linejoin="round"></circle>
  <path data-name="layer1" fill="none" stroke="#003399" stroke-linecap="round"
  stroke-miterlimit="10" stroke-width="2" d="M33.415 31.586L45 20.006m-22.938 5.057l8.361 6.713"
  stroke-linejoin="round"></path>
</svg>