<svg xmlns="http://www.w3.org/2000/svg" viewBox="0 0 64 64" aria-labelledby="title"
aria-describedby="desc" role="img" xmlns:xlink="http://www.w3.org/1999/xlink">
  <title>Increase</title>
  <desc>A line styled icon from Orion Icon Library.</desc>
  <path data-name="layer1"
  fill="none" stroke="#003399" stroke-miterlimit="10" stroke-width="2" d="M62 21V2H43v6h8.758L32 27.758 12.242 8H21V2H2v19h6v-8.757L27.758 32 8 51.758V43H2v19h19v-6h-8.758L32 36.243 51.758 56H43v6h19V43h-6v8.758L36.242 32 56 12.243V21h6z"
  stroke-linejoin="round" stroke-linecap="round"></path>
</svg>