<svg xmlns="http://www.w3.org/2000/svg" viewBox="0 0 64 64" aria-labelledby="title"
aria-describedby="desc" role="img" xmlns:xlink="http://www.w3.org/1999/xlink">
  <title>Indicator Up</title>
  <desc>A line styled icon from Orion Icon Library.</desc>
  <path data-name="layer1"
  d="M49.121 26.122L35.128 12.128l-.012-.012L33 10 16.879 26.122a3 3 0 0 0 4.242 4.243l8.88-8.88V51a3 3 0 0 0 6 0V21.486l8.878 8.879a3 3 0 0 0 4.242-4.243z"
  fill="none" stroke="#003399" stroke-miterlimit="10" stroke-width="2" stroke-linejoin="round"
  stroke-linecap="round"></path>
</svg>