<svg xmlns="http://www.w3.org/2000/svg" viewBox="0 0 64 64" aria-labelledby="title"
aria-describedby="desc" role="img" xmlns:xlink="http://www.w3.org/1999/xlink">
  <title>Infinity</title>
  <desc>A line styled icon from Orion Icon Library.</desc>
  <path data-name="layer1"
  d="M46 16.021c-6.844 0-10.687 4.3-13.8 9.242l-3.264 5.556C25.26 37.169 22.797 41 18 41c-6 0-10-3.764-10-8.996A9.881 9.881 0 0 1 18 22c2 0 4.913 1.27 7.286 4.245l3.65 4.574.467-.808c.907-1.571 1.817-3.19 2.798-4.748l.034-.06-2.158-2.7C26.586 18.128 22 16 18 16v.021A16.07 16.07 0 0 0 2 32.005C2 40.544 9 47 18 47s12.819-7.434 16.602-13.992C38.543 26.172 41 22.021 46 22.021c6 0 10 3.75 10 8.983A9.875 9.875 0 0 1 46 41c-2 0-4.99-1.28-7.354-4.226l-3.184 5.32A15.096 15.096 0 0 0 46 46.979V47a16.08 16.08 0 0 0 16-15.996c0-8.541-7-14.983-16-14.983z"
  fill="none" stroke="#003399" stroke-miterlimit="10" stroke-width="2" stroke-linejoin="round"
  stroke-linecap="round"></path>
</svg>