<svg xmlns="http://www.w3.org/2000/svg" viewBox="0 0 64 64" aria-labelledby="title"
aria-describedby="desc" role="img" xmlns:xlink="http://www.w3.org/1999/xlink">
  <title>New Email</title>
  <desc>A line styled icon from Orion Icon Library.</desc>
  <path data-name="layer2"
  fill="none" stroke="#33cc33" stroke-miterlimit="10" stroke-width="2" d="M32 48H2V12h54v23"
  stroke-linejoin="round" stroke-linecap="round"></path>
  <path data-name="layer2" fill="none" stroke="#33cc33" stroke-miterlimit="10"
  stroke-width="2" d="M2 12l27 20.6L56 12" stroke-linejoin="round" stroke-linecap="round"></path>
  <path data-name="layer1" fill="none" stroke="#003399" stroke-miterlimit="10"
  stroke-width="2" d="M47 40v14m7-7H40" stroke-linejoin="round" stroke-linecap="round"></path>
  <circle data-name="layer1" cx="47" cy="47" r="15" fill="none" stroke="#003399"
  stroke-miterlimit="10" stroke-width="2" stroke-linejoin="round" stroke-linecap="round"></circle>
</svg>