<svg xmlns="http://www.w3.org/2000/svg" viewBox="0 0 64 64" aria-labelledby="title"
aria-describedby="desc" role="img" xmlns:xlink="http://www.w3.org/1999/xlink">
  <title>New</title>
  <desc>A line styled icon from Orion Icon Library.</desc>
  <circle data-name="layer2"
  cx="32" cy="32" r="30" fill="none" stroke="#33cc33" stroke-miterlimit="10"
  stroke-width="2" stroke-linejoin="round" stroke-linecap="round"></circle>
  <path data-name="layer1" fill="none" stroke="#003399" stroke-miterlimit="10"
  stroke-width="2" d="M10 39V26l7.8 12h.2V25m16 1h-8v12h8m-2-6h-6m11-7l4.3 13h.5l3.5-10h1.2l3.3 10h.5L54 25"
  stroke-linejoin="round" stroke-linecap="round"></path>
</svg>