<svg viewBox="0 0 64 64" xmlns="http://www.w3.org/2000/svg" aria-labelledby="title"
aria-describedby="desc" role="img" xmlns:xlink="http://www.w3.org/1999/xlink">
  <title>Open 24 Hours</title>
  <desc>A line styled icon from Orion Icon Library.</desc>
  <path d="M56.418 31.908L58 24M6.068 24l5.952 30H26m0-50L8.068 24M38 4l18 20M2 24h60"
  stroke-width="2" stroke-miterlimit="10" stroke="#33cc33" fill="none" data-name="layer2"
  stroke-linejoin="round" stroke-linecap="round"></path>
  <path d="M54.004 40l-6 14H62m-3.996-6v12M32 41.55a6 6 0 0 1 8.637 8.277L32 60h12"
  stroke-width="2" stroke-miterlimit="10" stroke="#003399" fill="none" data-name="layer1"
  stroke-linejoin="round" stroke-linecap="round"></path>
</svg>