<svg xmlns="http://www.w3.org/2000/svg" viewBox="0 0 64 64" aria-labelledby="title"
aria-describedby="desc" role="img" xmlns:xlink="http://www.w3.org/1999/xlink">
  <title>Podium</title>
  <desc>A line styled icon from Orion Icon Library.</desc>
  <path data-name="layer2"
  d="M23.3 54h-9.6l6.8-8h.1a4.8 4.8 0 0 0-6.9-6.6M32 24V10l-4.1 2.1M42 38h8l-4 6s6 0 6 5.1-7.2 6.2-10 2.9M28 24h8"
  fill="none" stroke="#33cc33" stroke-miterlimit="10" stroke-width="2" stroke-linejoin="round"
  stroke-linecap="round"></path>
  <path data-name="layer1" fill="none" stroke="#003399" stroke-miterlimit="10"
  stroke-width="2" d="M2 32h30v30H2zM16 2h30v30H16zm16 30h30v30H32" stroke-linejoin="round"
  stroke-linecap="round"></path>
</svg>