<svg viewBox="0 0 64 64" xmlns="http://www.w3.org/2000/svg" aria-labelledby="title"
aria-describedby="desc" role="img" xmlns:xlink="http://www.w3.org/1999/xlink">
  <title>Protected</title>
  <desc>A line styled icon from Orion Icon Library.</desc>
  <path stroke-width="2"
  stroke-miterlimit="10" stroke="#33cc33" fill="none" d="M19 30.3v-15a13 13 0 0 1 13-13 13 13 0 0 1 13 13v15"
  data-name="layer2" stroke-linejoin="round" stroke-linecap="round"></path>
  <path stroke-width="2" stroke-miterlimit="10" stroke="#33cc33"
  fill="none" d="M23 30.3v-15a9 9 0 0 1 18 0v15" data-name="layer2" stroke-linejoin="round"
  stroke-linecap="round"></path>
  <path d="M10 29.8h44v32H10z" stroke-width="2" stroke-miterlimit="10"
  stroke="#003399" fill="none" data-name="layer1" stroke-linejoin="round"
  stroke-linecap="round"></path>
  <path stroke-width="2" stroke-miterlimit="10" stroke="#003399"
  fill="none" d="M34 48.7a2 2 0 0 1-2 2 2 2 0 0 1-2-2v-6a2 2 0 0 1 2-2 2 2 0 0 1 2 2z"
  data-name="layer1" stroke-linejoin="round" stroke-linecap="round"></path>
</svg>