<svg xmlns="http://www.w3.org/2000/svg" viewBox="0 0 64 64" aria-labelledby="title"
aria-describedby="desc" role="img" xmlns:xlink="http://www.w3.org/1999/xlink">
  <title>Radio</title>
  <desc>A line styled icon from Orion Icon Library.</desc>
  <path data-name="layer2"
  fill="none" stroke="#33cc33" stroke-miterlimit="10" stroke-width="2" d="M8 16L42 4"
  stroke-linejoin="round" stroke-linecap="round"></path>
  <rect data-name="layer2" x="2" y="16" width="60" height="44" rx="3"
  ry="3" fill="none" stroke="#33cc33" stroke-miterlimit="10" stroke-width="2"
  stroke-linejoin="round" stroke-linecap="round"></rect>
  <path data-name="layer1" d="M10 24h44" fill="none" stroke="#003399"
  stroke-miterlimit="10" stroke-width="2" stroke-linejoin="round" stroke-linecap="round"></path>
  <circle data-name="layer1" cx="44" cy="42" r="10" fill="none" stroke="#003399"
  stroke-miterlimit="10" stroke-width="2" stroke-linejoin="round" stroke-linecap="round"></circle>
  <path data-name="layer1" fill="none" stroke="#003399" stroke-miterlimit="10"
  stroke-width="2" d="M10 34h16m-16 8h16m-16 8h16m18-8v-3.7" stroke-linejoin="round"
  stroke-linecap="round"></path>
</svg>