<svg xmlns="http://www.w3.org/2000/svg" viewBox="0 0 64 64" aria-labelledby="title"
aria-describedby="desc" role="img" xmlns:xlink="http://www.w3.org/1999/xlink">
  <title>Ruler</title>
  <desc>A line styled icon from Orion Icon Library.</desc>
  <path data-name="layer2"
  fill="none" stroke="#33cc33" stroke-miterlimit="10" stroke-width="2" d="M2.8 47l14.1 14.1 44.3-44.4L47.4 2.9 2.8 47z"
  stroke-linejoin="round" stroke-linecap="round"></path>
  <path data-name="layer1" fill="none" stroke="#003399" stroke-miterlimit="10"
  stroke-width="2" d="M11.8 38.2l7 7m3.8-17.8l7 7m3.7-17.5l6.9 6.9m-23.1 9.1l5 5.1m5.6-15.6l5 5m5.7-15.6l4.9 5"
  stroke-linejoin="round" stroke-linecap="round"></path>
</svg>