<svg xmlns="http://www.w3.org/2000/svg" viewBox="0 0 64 64" aria-labelledby="title"
aria-describedby="desc" role="img" xmlns:xlink="http://www.w3.org/1999/xlink">
  <title>Safe</title>
  <desc>A line styled icon from Orion Icon Library.</desc>
  <rect data-name="layer2"
  x="2" y="2" width="60" height="56" rx="3" ry="3" fill="none" stroke="#33cc33"
  stroke-miterlimit="10" stroke-width="2" stroke-linejoin="round" stroke-linecap="round"></rect>
  <path data-name="layer2" fill="none" stroke="#33cc33" stroke-miterlimit="10"
  stroke-width="2" d="M10 58v4m44-4v4" stroke-linejoin="round" stroke-linecap="round"></path>
  <path data-name="layer1" fill="none" stroke="#003399" stroke-miterlimit="10"
  stroke-width="2" d="M10 10h44v40H10zM8 20h4M8 40h4m10-10a12 12 0 1 1 1.6 6"
  stroke-linejoin="round" stroke-linecap="round"></path>
  <circle data-name="layer1" cx="34" cy="30" r="2" fill="none" stroke="#003399"
  stroke-miterlimit="10" stroke-width="2" stroke-linejoin="round" stroke-linecap="round"></circle>
  <path data-name="layer1" fill="none" stroke="#003399" stroke-miterlimit="10"
  stroke-width="2" d="M34 30H18" stroke-linejoin="round" stroke-linecap="round"></path>
</svg>