<svg xmlns="http://www.w3.org/2000/svg" viewBox="0 0 64 64" aria-labelledby="title"
aria-describedby="desc" role="img" xmlns:xlink="http://www.w3.org/1999/xlink">
  <title>Seal</title>
  <desc>A line styled icon from Orion Icon Library.</desc>
  <path data-name="layer2"
  fill="none" stroke="#33cc33" stroke-miterlimit="10" stroke-width="2" d="M18.9 38.1L16 61l16-6 16 6-2.8-23M32 43v12"
  stroke-linejoin="round" stroke-linecap="round"></path>
  <circle data-name="layer1" cx="32" cy="23" r="20" fill="none" stroke="#003399"
  stroke-miterlimit="10" stroke-width="2" stroke-linejoin="round" stroke-linecap="round"></circle>
  <circle data-name="layer1" cx="32" cy="23" r="12" fill="none"
  stroke="#003399" stroke-miterlimit="10" stroke-width="2" stroke-linejoin="round"
  stroke-linecap="round"></circle>
</svg>