<svg viewBox="0 0 64 64" xmlns="http://www.w3.org/2000/svg" aria-labelledby="title"
aria-describedby="desc" role="img" xmlns:xlink="http://www.w3.org/1999/xlink">
  <title>Shuffle</title>
  <desc>A line styled icon from Orion Icon Library.</desc>
  <path stroke-width="2"
  stroke-miterlimit="10" stroke-linecap="round" stroke="#33cc33" fill="none"
  d="M51 7l-4.4 4.2 2.9 2.8H44c-3.4 0-8.3.6-11.5 5.3l-15.9 22C14.5 44.1 13.8 44 10 44H2v6h8c4.2 0 7.5.1 11.4-5.1l16-22h.1c.9-1.4 2.3-2.8 6.5-2.8h5.6l-3 3 4.2 4.2L61 17.1z"
  data-name="layer2" stroke-linejoin="round"></path>
  <path stroke-width="2" stroke-miterlimit="10" stroke-linecap="round"
  stroke="#003399" fill="none" d="M26.6 37.7l6 7.2c3.2 4.7 8.3 5.1 11.6 5.1h5.4l-3 3 4.4 4 10-9.9L50.9 37l-4.2 4.2 2.7 2.8H44c-4.2 0-5.6-1.2-6.5-2.5l-7.2-8.7M27 27l-5.6-7.7C17.5 14.1 14.2 14 10 14H2v6h8c3.8 0 4.5.1 6.6 2.9l6.7 9.2"
  data-name="layer1" stroke-linejoin="round"></path>
</svg>