<svg xmlns="http://www.w3.org/2000/svg" viewBox="0 0 64 64" aria-labelledby="title"
aria-describedby="desc" role="img" xmlns:xlink="http://www.w3.org/1999/xlink">
  <title>Synchronize</title>
  <desc>A line styled icon from Orion Icon Library.</desc>
  <path data-name="layer2"
  d="M17.662 25.152l-2.755 2.349a17.984 17.984 0 0 1 30.135-8.232l4.242-4.243A23.998 23.998 0 0 0 8.981 26.403L7 24l-5 3 8.943 11.768 10.613-9.05zm35.948-.206l-10.442 9.388 4.012 4.462 2.54-2.284a17.983 17.983 0 0 1-30.134 8.215l-4.24 4.245a24 24 0 0 0 40.261-11.191l1.76 2.389L62 37z"
  fill="none" stroke="#33cc33" stroke-miterlimit="10" stroke-width="2" stroke-linejoin="round"
  stroke-linecap="round"></path>
  <circle data-name="layer1" cx="33" cy="32" r="5" fill="none" stroke="#003399"
  stroke-miterlimit="10" stroke-width="2" stroke-linejoin="round" stroke-linecap="round"></circle>
</svg>