<svg xmlns="http://www.w3.org/2000/svg" viewBox="0 0 64 64" aria-labelledby="title"
aria-describedby="desc" role="img" xmlns:xlink="http://www.w3.org/1999/xlink">
  <title>Take A Photo</title>
  <desc>A line styled icon from Orion Icon Library.</desc>
  <circle data-name="layer2"
  cx="32" cy="32" r="30" fill="none" stroke="#33cc33" stroke-miterlimit="10"
  stroke-width="2" stroke-linejoin="round" stroke-linecap="round"></circle>
  <path data-name="layer1" d="M48.2 22h-7.5l-3.9-4h-9.6l-3.9 4h-7.5a1.8 1.8 0 0 0-1.8 1.8v18.4a1.8 1.8 0 0 0 1.8 1.8h32.4a1.8 1.8 0 0 0 1.8-1.8V23.8a1.8 1.8 0 0 0-1.8-1.8z"
  fill="none" stroke="#003399" stroke-miterlimit="10" stroke-width="2" stroke-linejoin="round"
  stroke-linecap="round"></path>
</svg>