<svg xmlns="http://www.w3.org/2000/svg" viewBox="0 0 64 64" aria-labelledby="title"
aria-describedby="desc" role="img" xmlns:xlink="http://www.w3.org/1999/xlink">
  <title>Time Limit</title>
  <desc>A line styled icon from Orion Icon Library.</desc>
  <path data-name="layer2"
  fill="none" stroke="#33cc33" stroke-linecap="round" stroke-miterlimit="10"
  stroke-width="2" d="M54 6v10H44M32 59a27 27 0 1 1 21.751-43m-8.766 39.678A26.819 26.819 0 0 1 38 58.331M53.751 48a27.159 27.159 0 0 1-4.711 4.945m8.751-12.932a26.821 26.821 0 0 1-1.58 3.952"
  stroke-linejoin="round"></path>
  <circle data-name="layer1" cx="32" cy="32" r="3" fill="none" stroke="#003399"
  stroke-linecap="round" stroke-miterlimit="10" stroke-width="2" stroke-linejoin="round"></circle>
  <path data-name="layer1" fill="none" stroke="#003399" stroke-linecap="round"
  stroke-miterlimit="10" stroke-width="2" d="M33.961 34.261L44 42M32 12v17"
  stroke-linejoin="round"></path>
</svg>