<svg xmlns="http://www.w3.org/2000/svg" viewBox="0 0 64 64" aria-labelledby="title"
aria-describedby="desc" role="img" xmlns:xlink="http://www.w3.org/1999/xlink">
  <title>Tribunal</title>
  <desc>A line styled icon from Orion Icon Library.</desc>
  <path data-name="layer2"
  fill="none" stroke="#33cc33" stroke-miterlimit="10" stroke-width="2" d="M4 25L32 3l28 22H4z"
  stroke-linejoin="round" stroke-linecap="round"></path>
  <path data-name="layer1" fill="none" stroke="#003399" stroke-miterlimit="10"
  stroke-width="2" d="M24 33h16m-12 0v20.1M36 33v20.1M46 33h14m-12 0v20.1M56 33v20.1M4 33h14M8 33v20.1M16 33v20.1m-12 0h56M2 61h60"
  stroke-linejoin="round" stroke-linecap="round"></path>
</svg>