<svg xmlns="http://www.w3.org/2000/svg" viewBox="0 0 64 64" aria-labelledby="title"
aria-describedby="desc" role="img" xmlns:xlink="http://www.w3.org/1999/xlink">
  <title>Vault</title>
  <desc>A line styled icon from Orion Icon Library.</desc>
  <rect data-name="layer1"
  x="2" y="2" width="60" height="60" rx="3" ry="3" fill="none" stroke="#003399"
  stroke-miterlimit="10" stroke-width="2" stroke-linejoin="round" stroke-linecap="round"></rect>
  <path data-name="layer2" fill="none" stroke="#33cc33" stroke-miterlimit="10"
  stroke-width="2" d="M10 16v-6h44v44H10v-6m0-8V24" stroke-linejoin="round"
  stroke-linecap="round"></path>
  <circle data-name="layer2" cx="34" cy="32" r="8" fill="none" stroke="#33cc33"
  stroke-miterlimit="10" stroke-width="2" stroke-linejoin="round" stroke-linecap="round"></circle>
  <path data-name="layer2" fill="none" stroke="#33cc33" stroke-miterlimit="10"
  stroke-width="2" d="M34 20v4m0 16v4M22 32h4m16 0h4m-20.5-8.5l2.8 2.8m11.4 11.4l2.8 2.8m-17 0l2.8-2.8m11.4-11.4l2.8-2.8"
  stroke-linejoin="round" stroke-linecap="round"></path>
  <path data-name="layer1" fill="none" stroke="#003399" stroke-miterlimit="10"
  stroke-width="2" d="M8 16h4v8H8zm0 24h4v8H8z" stroke-linejoin="round" stroke-linecap="round"></path>
</svg>