<svg xmlns="http://www.w3.org/2000/svg" viewBox="0 0 64 64" aria-labelledby="title"
aria-describedby="desc" role="img" xmlns:xlink="http://www.w3.org/1999/xlink">
  <title>Wikipedia</title>
  <desc>A color styled icon from Orion Icon Library.</desc>
  <path data-name="layer1"
  d="M35.548 14.5c0 .2 0 .3.1.4a.367.367 0 0 0 .3.1h.4c1.4.1 2 .5 2.1.7.3.4.5.9-.3 2.8l-4.696 10.273-4.193-9.484c-1.4-2.995-1.7-4.093.9-4.293.4 0 .3-.2.3-.5V13.2s0-.1-.2-.1H19.176a.1.1 0 0 0-.1.1v1.3c0 .3.3.4.8.5 2 .3 1.9.5 3.893 4.692.4.7 1.2 2.6 1.2 2.6l4.393 9.484s.5 1.2 1.3 3.095l-6.395 14.068c-.1.2-.3 0-.4-.1 0 0-9.883-23.061-12.778-30.748a5.343 5.343 0 0 1-.4-1.8c0-.8.6-1.2 1.9-1.3l2-.1c.4 0 1.1-.2 1.1-.5V13.3s0-.2-.6-.2H.407c-.5 0-.4.3-.4.3v1.2c0 .2.3.4.9.5a5.7 5.7 0 0 1 2.995.8A10.373 10.373 0 0 1 5.6 19.19c3.593 9.484 11.28 26.555 15.073 36.238 1.1 2.6 2.4 3.095 4.093-.1 1.7-3.394 5.091-11.081 7.587-16.672 2.3 5.591 5.491 13.278 6.988 16.672 1.2 2.8 2.6 2.995 3.993.1 3.594-9.085 14.376-36.139 14.376-36.139a6.949 6.949 0 0 1 2-3.095A5.728 5.728 0 0 1 63.5 15c.4 0 .5-.2.5-.5v-1.3a.2.2 0 0 0-.2-.2H50.722s-.9 0-.9.3v1.2c0 .1.2.2.6.4a1.419 1.419 0 0 0 .6.2l1.2.1a2.913 2.913 0 0 1 2.3.9c.5.5.6 1.4.2 2.6L42.836 49.039c-.1.2-.3.1-.4-.1l-7.387-16.672a1.093 1.093 0 0 1 .2-.4l5.99-12.579c.7-1.3 1.4-2.5 1.7-2.995.6-1 .9-1.2 2.7-1.3.4 0 .5-.2.5-.5V13.2a.1.1 0 0 0-.1-.1H35.548"
  fill="#222a30"></path>
</svg>