<svg xmlns="http://www.w3.org/2000/svg" viewBox="0 0 64 64" aria-labelledby="title"
aria-describedby="desc" role="img" xmlns:xlink="http://www.w3.org/1999/xlink">
  <title>Wireless Headphones</title>
  <desc>A line styled icon from Orion Icon Library.</desc>
  <path data-name="layer2"
  d="M12 38V28c0-11 8-20 19-20h2c11 0 19 9 19 20v10" fill="none" stroke="#33cc33"
  stroke-miterlimit="10" stroke-width="2" stroke-linejoin="round" stroke-linecap="round"></path>
  <path data-name="layer1" fill="none" stroke="#003399" stroke-miterlimit="10"
  stroke-width="2" d="M8 38h8v18H8zm40 0h8v18h-8zM8 40H4a2 2 0 0 0-2 2v10a2 2 0 0 0 2 2h4m48 0h4a2 2 0 0 0 2-2V42a2 2 0 0 0-2-2h-4"
  stroke-linejoin="round" stroke-linecap="round"></path>
</svg>